43 00 02 32 34 1c 
54 44 04 46 30 30 30 30 30 39 33 38 37 34 36 32 32 34 30 30 30 1c 
30 32 00 40 41 50 50 52 4f 56 45 44 20 20 20 20 20 20 20 20 20 20 20 20 20 20 20 20 20 20 20 20 20 20 20 20 20 20 20 20 20 20 20 20 1c 
44 30 00 69 20 20 20 20 20 20 20 20 20 20 20 20 20 20 20 20 20 20 20 20 20 20 20 4e 45 54 53 20 54 45 53 54 20 54 45 52 4d 49 4e 41 4c 53 20 42 32 20 20 20 20 20 54 48 41 4e 4b 20 59 4f 55 20 20 20 20 20 20 20 20 20 20 1c 
31 36 00 08 33 35 31 35 30 30 30 31 1c 
44 31 00 15 31 31 31 33 35 31 35 30 30 30 30 30 20 20 20 1c 
35 30 00 12 31 39 30 35 32 33 31 36 34 37 33 33 1c 
48 36 00 06 30 30 30 30 30 30 1c 
34 30 00 12 30 30 30 30 30 30 30 30 30 30 30 30 1c 
5a 41 00 06 30 30 30 30 30 30 1c 
5a 42 00 06 30 30 30 30 30 30 1c 
5a 43 00 06 30 30 30 30 30 30 1c 
33 30 00 16 31 31 31 31 37 33 37 39 39 39 38 36 37 30 39 33 1c 
43 32 00 08 31 38 30 33 32 30 32 35 1c 
5a 50 00 06 30 30 30 30 30 30 1c 
30 31 00 06 30 30 30 30 30 30 1c 
44 32 00 10 20 20 20 20 20 20 20 20 20 20 1c 
5a 54 00 19 30 30 31 39 30 35 32 33 31 38 30 33 32 34 20 20 20 20 20 1c 
44 33 00 12 30 30 30 30 30 30 30 30 30 30 30 30 1c 
43 31 00 02 32 30 1c 
43 30 00 64 30 31 30 30 30 30 30 30 30 30 30 34 30 30 31 39 30 35 32 33 31 38 30 33 32 34 30 30 30 30 30 30 30 30 30 36 34 36 30 30 30 30 30 30 30 30 30 32 34 36 30 30 30 30 30 30 30 30 30 30 30 30 30 31 1c 
48 44 00 00 1c 
52 50 00 00 1c 
1c 
22