69 31 20 20 20 20 20 20 20 20 20 20 20 20 20 20 20 20 20 20 20 20 20 20 4e 45 54 53 20 54 45 53 54 20 54 45 52 4d 49 4e 41 4c 53 20 42 32 20 20 20 20 20 54 48 41 4e 4b 20 59 4f 55 20 20 20 20 20 20 20 20 20 20 1c -->71
30 33 00 06 31 39 30 35 32 35 1c -->82 DATE
30 34 00 06 31 37 35 36 31 33 1c -->93 TIME
31 36 00 08 33 35 31 35 30 30 30 31 1c -->106 TERMINAL ID
44 31 00 15 31 31 31 33 35 31 35 30 30 30 30 30 20 20 20 1c -->126 MERCHANT ID 
36 35 00 06 30 30 30 33 35 39 1c -->137 STAN
30 31 00 06 20 20 20 20 20 20 1c -->148 APPROVAL CODE
44 33 00 12 20 20 20 20 20 20 30 30 30 33 35 39 1c -->166 RRN
4c 37 00 20 20 20 20 20 20 20 20 20 20 20 20 20 20 20 20 20 20 20 20 20 1c -->191
34 30 00 12 30 30 30 30 30 30 30 30 30 30 31 30 1c -->208 AMOUNT
34 31 00 12 30 30 30 30 30 30 30 30 30 30 30 30 1c -->225 SERVICE FEE
4c 35 02 40 20 20 20 20 20 20 20 20 20 20 20 20 20 20 20 20 20 20 20 20 20 20 20 20 20 20 20 20 20 20 20 20 20 20 20 20 20 20 20 20 20 20 20 20 20 20 20 20 20 20 20 20 20 20 20 20 20 20 20 20 20 20 20 20 20 20 20 20 20 20 20 20 20 20 20 20 20 20 20 20 20 20 20 20 20 20 20 20 20 20 20 20 20 20 20 20 20 20 20 20 20 20 20 20 20 20 20 20 20 20 20 20 20 20 20 20 20 20 20 20 20 20 20 20 20 20 20 20 20 20 20 20 20 20 20 20 20 20 20 20 20 20 20 20 20 20 20 20 20 20 20 20 20 20 20 20 20 20 20 20 20 20 20 20 20 20 20 20 20 20 20 20 20 20 20 20 20 20 20 20 20 20 20 20 20 20 20 20 20 20 20 20 20 20 20 20 20 20 20 20 20 20 20 20 20 20 20 20 20 20 20 20 20 20 20 20 20 20 20 20 20 20 20 20 20 20 20 20 20 20 20 20 20 20 20 20 20 20 20 20 1c -->470 POS MESSAGE
52 30 00 20 4e 4f 20 52 45 50 4c 59 20 46 52 4f 4d 20 42 41 4e 4b 00 20 1c -->494 RESPONSE MESSAGE 1
52 31 00 20 4e 4f 20 52 45 50 4c 59 20 46 52 4f 4d 20 42 41 4e 4b 00 20 1c -->519 RESPONSE MESSAGE 1
4c 31 00 24 20 20 20 20 20 20 20 20 20 20 20 20 20 20 20 20 20 20 20 20 20 20 20 20 1c -->548 LOYALTI PROGRAM NAME
4c 38 00 08 30 30 30 30 30 30 30 30 1c -->561 LOYALTI PROGRAM EXPIRE DATE
4c 32 00 01 30 1c -->567 LOYALTI TYPE
4c 39 01 44 20 20 20 20 20 20 20 20 20 20 20 20 20 20 20 20 20 20 20 20 20 20 20 20 20 20 20 20 20 20 20 20 20 20 20 20 20 20 20 20 20 20 20 20 20 20 20 20 20 20 20 20 20 20 20 20 20 20 20 20 20 20 20 20 20 20 20 20 20 20 20 20 20 20 20 20 20 20 20 20 20 20 20 20 20 20 20 20 20 20 20 20 20 20 20 20 20 20 20 20 20 20 20 20 20 20 20 20 20 20 20 20 20 20 20 20 20 20 20 20 20 20 20 20 20 20 20 20 20 20 20 20 20 20 20 20 20 20 20 20 20 20 20 20 1c -->716
4c 33 00 12 30 30 30 30 30 30 30 30 30 30 30 30 1c --> 733 REDEMPTION VALUE
4c 34 00 12 30 30 30 30 30 30 30 30 30 30 30 30 1c --> 750 CURRENT LOYALTY BALANCE
48 43 00 02 39 31 1c -->757 RESPONSE CODE
43 4e 00 02 32 30 1c -->764
48 44 00 00 1c 
52 50 06 50 20 20 20 20 20 20 20 20 20 20 20 20 20 20 20 20 20 20 20 20 20 20 20 20 0a 20 20 20 20 20 20 20 20 20 20 20 20 20 20 20 20 20 20 20 20 20 20 20 20 0a 4e 45 54 53 56 30 32 30 2e 45 30 33 20 20 20 20 20 20 20 20 20 20 20 20 0a 4e 45 54 53 20 54 45 53 54 20 54 45 52 4d 49 4e 41 4c 53 20 42 32 20 20 0a 20 20 20 54 48 41 4e 4b 20 59 4f 55 20 20 20 20 20 20 20 20 20 20 20 20 0a 31 20 20 20 20 20 20 20 20 20 20 20 20 20 20 20 20 20 20 20 20 20 20 20 0a 31 31 31 33 35 31 35 30 30 30 30 30 20 20 20 20 33 35 31 35 30 30 30 31 0a 30 30 30 33 35 39 20 20 20 20 20 20 20 20 20 20 20 20 20 20 52 45 46 3a 0a 50 55 52 43 48 41 53 45 28 51 52 29 20 20 20 20 20 20 20 20 20 20 20 20 0a 20 20 20 20 20 20 20 20 20 20 20 20 20 20 20 20 20 20 20 20 20 20 20 20 0a 20 20 20 20 20 20 20 20 20 20 20 20 20 20 20 20 20 20 20 20 20 20 20 20 0a 32 35 20 4d 41 59 20 32 30 31 39 20 20 20 20 20 31 37 3a 35 36 3a 31 33 0a 30 30 30 33 35 39 20 20 20 20 20 20 20 20 20 20 20 20 20 20 20 20 39 31 0a 20 20 20 20 20 20 20 20 20 20 20 20 20 20 20 20 20 20 20 20 20 20 20 20 0a 54 4f 54 41 4c 3a 20 20 20 20 20 20 20 20 20 20 20 2a 2e 2a 2a 20 20 20 0a 20 20 20 20 20 20 20 20 20 20 20 20 20 20 20 20 20 20 20 20 20 20 20 20 0a 20 20 20 20 20 20 20 20 20 20 20 20 20 20 20 20 20 20 20 20 20 20 20 20 0a 20 20 20 4e 4f 20 52 45 50 4c 59 20 46 52 4f 4d 20 42 41 4e 4b 20 20 20 0a 20 20 20 20 20 20 20 20 44 45 43 4c 49 4e 45 44 20 20 20 20 20 20 20 20 0a 20 20 20 20 20 20 20 20 20 20 20 20 20 20 20 20 20 20 20 20 20 20 20 20 0a 20 20 20 20 20 20 20 20 20 20 20 20 20 20 20 20 20 20 20 20 20 20 20 20 0a 2d 2d 2d 2d 2d 2d 2d 2d 2d 2d 2d 2d 2d 2d 2d 2d 2d 2d 2d 2d 2d 2d 2d 2d 0a 20 20 20 20 20 20 20 20 20 20 20 20 20 20 20 20 20 20 20 20 20 20 20 20 0a 20 20 20 20 20 20 20 20 20 20 20 20 20 20 20 20 20 20 20 20 20 20 20 20 0a 20 20 20 20 20 20 20 20 20 20 20 20 20 20 20 20 20 20 20 20 20 20 20 20 0a 20 20 20 20 20 20 20 20 20 20 20 20 20 20 20 20 20 20 20 20 20 20 20 20 0a 1c 
6e