{
    "response_code": 200,
    "response_msg": "Transaction : APPROVED",
    "errors": [],
    "data": {
        "STAN": "",
        "MerchantId": "",
        "TerminalID": "",
        "BankDateTime": "'20200124212415'",
        "TxnRef": "",
        "CardPAN": "'411111******1112'",
        "Receipt": "",
        "CardType": "'Visa'",
        "AuthCode": "'025804'",
        "status": "'SUCCESS'",
        "ID": "",
        "result": true,
        "surcharge": 0,
        "response": {
            "AC": "025804",
            "AP": "1",
            "CN": "411111******1112",
            "CID": "2",
            "CT": "Visa",
            "CH": "DPS VISA TEST CARD",
            "CED": "1225",
            "DT": "20200124212415",
            "DT_TZ": "NZT",
            "DS": "19900101000000",
            "DS_TZ": "NZT",
            "PIX": [],
            "RID": [],
            "RRN": [],
            "ST": "631017",
            "TR": "0000001f01d3644b",
            "RC": "00",
            "RT": [],
            "RTT": "610",
            "AmtA": "460",
            "AmtS": "0",
            "AmtC": "0",
            "MID": [],
            "TID": [],
            "AutoSig": [],
            "CaStan": "0"
        }
    },
    "message": "Transaction : APPROVED",
    "nextCommand": "",
    "result": true
}