Request: 02 00 77 30 30 30 30 30 30 30 30 30 30 38 35 32 30 30 32 30 1C 36 30 30 30 30 30 30 30 30 30 31 30 32 30 30 30 30 1C 34 30 00 12 30 30 30 30 30 30 30 30 30 32 30 30 1C 44 38 00 19 31 33 31 32 32 38 31 32 38 38 30 35 30 30 30 30 30 30 30 1C 03 30

Response: 02 04 55 30 30 30 30 30 30 30 30 30 30 38 35 32 30 30 30 30 1c 36 30 30 30 30 30 30 30 30 30 31 31 32 30 30 30 30 1c 30 32 00 40 20 20 20 20 20 20 20 20 20 20 20 20 41 50 50 52 4f 56 41 4c 20 20 20 20 20 20 20 20 20 20 20 20 20 20 52 33 30 30 31 30 1c 44 30 00 69 4c 54 41 00 00 00 00 00 00 00 00 00 00 00 00 00 00 00 00 00 00 00 00 55 41 54 20 54 65 73 74 69 6e 67 00 00 00 00 00 00 00 00 00 00 00 00 41 44 44 52 45 53 53 20 32 00 00 00 00 00 00 00 00 00 00 00 00 00 00 1c 30 33 00 06 32 30 30 34 31 37 1c 30 34 00 06 31 37 35 38 33 30 1c 30 31 00 06 52 33 30 30 31 30 1c 36 35 00 06 30 30 30 30 32 39 1c 31 36 00 08 38 32 31 30 33 37 34 32 1c 44 31 00 15 30 30 30 32 38 38 31 39 38 37 30 31 32 38 39 1c 44 32 00 10 4d 41 53 54 45 52 00 20 20 20 1c 33 30 00 16 35 35 32 32 35 33 2a 2a 2a 2a 2a 2a 32 32 36 30 1c 33 31 00 04 32 32 31 32 1c 35 30 00 06 30 30 30 30 30 39 1c 44 33 00 12 30 30 30 30 32 31 30 30 30 30 34 30 1c 44 34 00 02 30 35 1c 39 41 00 07 a0 00 00 00 04 10 10 1c 39 42 00 16 00 00 00 00 00 00 00 00 00 00 00 00 00 00 00 00 1c 39 43 00 01 00 1c 39 44 00 08 9b ae 28 b9 e0 0a 7c f4 1c 39 45 00 05 00 00 00 80 00 1c 39 46 00 02 00 00 1c 39 37 00 06 30 30 30 30 34 30 1c 39 38 00 10 50 41 59 50 41 53 53 20 20 20 1c 44 38 00 19 31 33 31 32 32 38 31 32 38 38 30 35 30 30 30 30 30 30 30 1c 4e 30 00 01 30 1c 4e 31 00 04 30 30 30 30 1c 4e 33 00 04 30 30 30 30 1c 03 a3
