
BCA Configuration IP
==============
1.tekan F
2.TEKAN 2
3.password : 3226
4.pilih Setting IP eg.192.168.xxx.xxx (misal 0 ,tetap di buat 000)
5.Tekan Ok (Save)
6.Tekan Tombol Merah kembali ke layar utama
7.Lakukan Reset Ethernet


reset ethernet
==============
1.tekan F
2.tekan 77
3.999999
4.pilih ethernet
5.ok

Manual Settlement
=================
1.tekan F
2.TEKAN 91
3.password : 3626
